com\boss\mybatis\db\mapper\UserAnotationMapper.class
com\boss\mybatis\db\SpringMyBatisApplication.class
com\boss\mybatis\db\model\ExampleTypeHandler.class
com\boss\mybatis\db\model\Blog.class
com\boss\mybatis\db\model\Comment.class
com\boss\mybatis\db\model\User.class
com\boss\mybatis\db\mapper\BlogXmlMapper.class
com\boss\mybatis\db\mapper\UserXmlMapper.class
